%YAML 1.1
%TAG !u! tag:unity3d.com,2011:
--- !u!1 &8017188783370624841
GameObject:
  m_ObjectHideFlags: 0
  m_CorrespondingSourceObject: {fileID: 0}
  m_PrefabInstance: {fileID: 0}
  m_PrefabAsset: {fileID: 0}
  serializedVersion: 6
  m_Component:
  - component: {fileID: 1862181979988907044}
  - component: {fileID: 8741809659246463717}
  - component: {fileID: 8685382914890193123}
  - component: {fileID: 1254298946391738461}
  - component: {fileID: 8645305577749978173}
  m_Layer: 0
  m_Name: Farm
  m_TagString: Untagged
  m_Icon: {fileID: 0}
  m_NavMeshLayer: 0
  m_StaticEditorFlags: 0
  m_IsActive: 1
--- !u!4 &1862181979988907044
Transform:
  m_ObjectHideFlags: 0
  m_CorrespondingSourceObject: {fileID: 0}
  m_PrefabInstance: {fileID: 0}
  m_PrefabAsset: {fileID: 0}
  m_GameObject: {fileID: 8017188783370624841}
  m_LocalRotation: {x: 0, y: 0, z: 0, w: 1}
  m_LocalPosition: {x: 0, y: 0, z: 0}
  m_LocalScale: {x: 1, y: 1, z: 1}
  m_Children:
  - {fileID: 7618345898583044089}
  m_Father: {fileID: 0}
  m_RootOrder: 0
  m_LocalEulerAnglesHint: {x: 0, y: 0, z: 0}
--- !u!114 &8741809659246463717
MonoBehaviour:
  m_ObjectHideFlags: 0
  m_CorrespondingSourceObject: {fileID: 0}
  m_PrefabInstance: {fileID: 0}
  m_PrefabAsset: {fileID: 0}
  m_GameObject: {fileID: 8017188783370624841}
  m_Enabled: 1
  m_EditorHideFlags: 0
  m_Script: {fileID: 11500000, guid: 61980c3fe1290984494570a1a07f7c0d, type: 3}
  m_Name: 
  m_EditorClassIdentifier: 
  Size: {x: 3, y: 3}
  ColorGiz1: {r: 0.9716981, g: 0.18025358, b: 0.114587024, a: 0.3137255}
  ColorGiz2: {r: 0, g: 0.5254902, b: 1, a: 0.3137255}
  MainRenderer: {fileID: 7630602638484608769}
--- !u!114 &8685382914890193123
MonoBehaviour:
  m_ObjectHideFlags: 0
  m_CorrespondingSourceObject: {fileID: 0}
  m_PrefabInstance: {fileID: 0}
  m_PrefabAsset: {fileID: 0}
  m_GameObject: {fileID: 8017188783370624841}
  m_Enabled: 1
  m_EditorHideFlags: 0
  m_Script: {fileID: 11500000, guid: 689f2d30ad9c6824d96b96284bed7300, type: 3}
  m_Name: 
  m_EditorClassIdentifier: 
  MoneyManeg: {fileID: 0}
  spawnTime: 3
  moneyMakings: 10
--- !u!65 &1254298946391738461
BoxCollider:
  m_ObjectHideFlags: 0
  m_CorrespondingSourceObject: {fileID: 0}
  m_PrefabInstance: {fileID: 0}
  m_PrefabAsset: {fileID: 0}
  m_GameObject: {fileID: 8017188783370624841}
  m_Material: {fileID: 0}
  m_IsTrigger: 1
  m_Enabled: 1
  serializedVersion: 2
  m_Size: {x: 30, y: 30, z: 30}
  m_Center: {x: 0, y: 0, z: 0}
--- !u!54 &8645305577749978173
Rigidbody:
  m_ObjectHideFlags: 0
  m_CorrespondingSourceObject: {fileID: 0}
  m_PrefabInstance: {fileID: 0}
  m_PrefabAsset: {fileID: 0}
  m_GameObject: {fileID: 8017188783370624841}
  serializedVersion: 2
  m_Mass: 1
  m_Drag: 0
  m_AngularDrag: 0.05
  m_UseGravity: 0
  m_IsKinematic: 1
  m_Interpolate: 0
  m_Constraints: 0
  m_CollisionDetection: 0
--- !u!1001 &7617709678247660551
PrefabInstance:
  m_ObjectHideFlags: 0
  serializedVersion: 2
  m_Modification:
    m_TransformParent: {fileID: 1862181979988907044}
    m_Modifications:
    - target: {fileID: 1165936060971666, guid: 35de37196fbfb6d4f8d6d58d5880c67b, type: 3}
      propertyPath: m_Name
      value: farm_lvl7
      objectReference: {fileID: 0}
    - target: {fileID: 4019456604464126, guid: 35de37196fbfb6d4f8d6d58d5880c67b, type: 3}
      propertyPath: m_LocalPosition.x
      value: 1
      objectReference: {fileID: 0}
    - target: {fileID: 4019456604464126, guid: 35de37196fbfb6d4f8d6d58d5880c67b, type: 3}
      propertyPath: m_LocalPosition.y
      value: 0
      objectReference: {fileID: 0}
    - target: {fileID: 4019456604464126, guid: 35de37196fbfb6d4f8d6d58d5880c67b, type: 3}
      propertyPath: m_LocalPosition.z
      value: 1
      objectReference: {fileID: 0}
    - target: {fileID: 4019456604464126, guid: 35de37196fbfb6d4f8d6d58d5880c67b, type: 3}
      propertyPath: m_LocalRotation.x
      value: 0.000000021855694
      objectReference: {fileID: 0}
    - target: {fileID: 4019456604464126, guid: 35de37196fbfb6d4f8d6d58d5880c67b, type: 3}
      propertyPath: m_LocalRotation.y
      value: -0
      objectReference: {fileID: 0}
    - target: {fileID: 4019456604464126, guid: 35de37196fbfb6d4f8d6d58d5880c67b, type: 3}
      propertyPath: m_LocalRotation.z
      value: -0
      objectReference: {fileID: 0}
    - target: {fileID: 4019456604464126, guid: 35de37196fbfb6d4f8d6d58d5880c67b, type: 3}
      propertyPath: m_LocalRotation.w
      value: 1
      objectReference: {fileID: 0}
    - target: {fileID: 4019456604464126, guid: 35de37196fbfb6d4f8d6d58d5880c67b, type: 3}
      propertyPath: m_RootOrder
      value: 0
      objectReference: {fileID: 0}
    - target: {fileID: 4019456604464126, guid: 35de37196fbfb6d4f8d6d58d5880c67b, type: 3}
      propertyPath: m_LocalEulerAnglesHint.x
      value: 0
      objectReference: {fileID: 0}
    - target: {fileID: 4019456604464126, guid: 35de37196fbfb6d4f8d6d58d5880c67b, type: 3}
      propertyPath: m_LocalEulerAnglesHint.y
      value: 0
      objectReference: {fileID: 0}
    - target: {fileID: 4019456604464126, guid: 35de37196fbfb6d4f8d6d58d5880c67b, type: 3}
      propertyPath: m_LocalEulerAnglesHint.z
      value: 0
      objectReference: {fileID: 0}
    - target: {fileID: 4019456604464126, guid: 35de37196fbfb6d4f8d6d58d5880c67b, type: 3}
      propertyPath: m_LocalScale.x
      value: 3
      objectReference: {fileID: 0}
    - target: {fileID: 4019456604464126, guid: 35de37196fbfb6d4f8d6d58d5880c67b, type: 3}
      propertyPath: m_LocalScale.y
      value: 3
      objectReference: {fileID: 0}
    - target: {fileID: 4019456604464126, guid: 35de37196fbfb6d4f8d6d58d5880c67b, type: 3}
      propertyPath: m_LocalScale.z
      value: 3
      objectReference: {fileID: 0}
    m_RemovedComponents: []
  m_SourcePrefab: {fileID: 100100000, guid: 35de37196fbfb6d4f8d6d58d5880c67b, type: 3}
--- !u!4 &7618345898583044089 stripped
Transform:
  m_CorrespondingSourceObject: {fileID: 4019456604464126, guid: 35de37196fbfb6d4f8d6d58d5880c67b, type: 3}
  m_PrefabInstance: {fileID: 7617709678247660551}
  m_PrefabAsset: {fileID: 0}
--- !u!23 &7630602638484608769 stripped
MeshRenderer:
  m_CorrespondingSourceObject: {fileID: 23312104421939974, guid: 35de37196fbfb6d4f8d6d58d5880c67b, type: 3}
  m_PrefabInstance: {fileID: 7617709678247660551}
  m_PrefabAsset: {fileID: 0}
