%YAML 1.1
%TAG !u! tag:unity3d.com,2011:
--- !u!1 &8017188783370624841
GameObject:
  m_ObjectHideFlags: 0
  m_CorrespondingSourceObject: {fileID: 0}
  m_PrefabInstance: {fileID: 0}
  m_PrefabAsset: {fileID: 0}
  serializedVersion: 6
  m_Component:
  - component: {fileID: 1862181979988907044}
  - component: {fileID: 8741809659246463717}
  m_Layer: 0
  m_Name: Tower
  m_TagString: Untagged
  m_Icon: {fileID: 0}
  m_NavMeshLayer: 0
  m_StaticEditorFlags: 0
  m_IsActive: 1
--- !u!4 &1862181979988907044
Transform:
  m_ObjectHideFlags: 0
  m_CorrespondingSourceObject: {fileID: 0}
  m_PrefabInstance: {fileID: 0}
  m_PrefabAsset: {fileID: 0}
  m_GameObject: {fileID: 8017188783370624841}
  m_LocalRotation: {x: 0, y: 0, z: 0, w: 1}
  m_LocalPosition: {x: -0.5, y: 0, z: -0.5}
  m_LocalScale: {x: 1, y: 1, z: 1}
  m_Children:
  - {fileID: 6233184832257569187}
  m_Father: {fileID: 0}
  m_RootOrder: 0
  m_LocalEulerAnglesHint: {x: 0, y: 0, z: 0}
--- !u!114 &8741809659246463717
MonoBehaviour:
  m_ObjectHideFlags: 0
  m_CorrespondingSourceObject: {fileID: 0}
  m_PrefabInstance: {fileID: 0}
  m_PrefabAsset: {fileID: 0}
  m_GameObject: {fileID: 8017188783370624841}
  m_Enabled: 1
  m_EditorHideFlags: 0
  m_Script: {fileID: 11500000, guid: 61980c3fe1290984494570a1a07f7c0d, type: 3}
  m_Name: 
  m_EditorClassIdentifier: 
  Size: {x: 1, y: 1}
  ColorGiz1: {r: 0.9716981, g: 0.18025358, b: 0.114587024, a: 0.3137255}
  ColorGiz2: {r: 0, g: 0.5254902, b: 1, a: 0.3137255}
  MainRenderer: {fileID: 6258550656203389109}
--- !u!1001 &6236926653036517257
PrefabInstance:
  m_ObjectHideFlags: 0
  serializedVersion: 2
  m_Modification:
    m_TransformParent: {fileID: 1862181979988907044}
    m_Modifications:
    - target: {fileID: 1319839184525736, guid: 4be703f0d1af24046be6c443f26fdb76, type: 3}
      propertyPath: m_Name
      value: tower_lvl3
      objectReference: {fileID: 0}
    - target: {fileID: 4146445422224938, guid: 4be703f0d1af24046be6c443f26fdb76, type: 3}
      propertyPath: m_LocalPosition.x
      value: -0
      objectReference: {fileID: 0}
    - target: {fileID: 4146445422224938, guid: 4be703f0d1af24046be6c443f26fdb76, type: 3}
      propertyPath: m_LocalPosition.y
      value: 0
      objectReference: {fileID: 0}
    - target: {fileID: 4146445422224938, guid: 4be703f0d1af24046be6c443f26fdb76, type: 3}
      propertyPath: m_LocalPosition.z
      value: 0
      objectReference: {fileID: 0}
    - target: {fileID: 4146445422224938, guid: 4be703f0d1af24046be6c443f26fdb76, type: 3}
      propertyPath: m_LocalRotation.x
      value: 0.000000021855694
      objectReference: {fileID: 0}
    - target: {fileID: 4146445422224938, guid: 4be703f0d1af24046be6c443f26fdb76, type: 3}
      propertyPath: m_LocalRotation.y
      value: -0
      objectReference: {fileID: 0}
    - target: {fileID: 4146445422224938, guid: 4be703f0d1af24046be6c443f26fdb76, type: 3}
      propertyPath: m_LocalRotation.z
      value: -0
      objectReference: {fileID: 0}
    - target: {fileID: 4146445422224938, guid: 4be703f0d1af24046be6c443f26fdb76, type: 3}
      propertyPath: m_LocalRotation.w
      value: 1
      objectReference: {fileID: 0}
    - target: {fileID: 4146445422224938, guid: 4be703f0d1af24046be6c443f26fdb76, type: 3}
      propertyPath: m_RootOrder
      value: 0
      objectReference: {fileID: 0}
    - target: {fileID: 4146445422224938, guid: 4be703f0d1af24046be6c443f26fdb76, type: 3}
      propertyPath: m_LocalEulerAnglesHint.x
      value: 0
      objectReference: {fileID: 0}
    - target: {fileID: 4146445422224938, guid: 4be703f0d1af24046be6c443f26fdb76, type: 3}
      propertyPath: m_LocalEulerAnglesHint.y
      value: 0
      objectReference: {fileID: 0}
    - target: {fileID: 4146445422224938, guid: 4be703f0d1af24046be6c443f26fdb76, type: 3}
      propertyPath: m_LocalEulerAnglesHint.z
      value: 0
      objectReference: {fileID: 0}
    - target: {fileID: 4146445422224938, guid: 4be703f0d1af24046be6c443f26fdb76, type: 3}
      propertyPath: m_LocalScale.x
      value: 3
      objectReference: {fileID: 0}
    - target: {fileID: 4146445422224938, guid: 4be703f0d1af24046be6c443f26fdb76, type: 3}
      propertyPath: m_LocalScale.y
      value: 3
      objectReference: {fileID: 0}
    - target: {fileID: 4146445422224938, guid: 4be703f0d1af24046be6c443f26fdb76, type: 3}
      propertyPath: m_LocalScale.z
      value: 3
      objectReference: {fileID: 0}
    m_RemovedComponents: []
  m_SourcePrefab: {fileID: 100100000, guid: 4be703f0d1af24046be6c443f26fdb76, type: 3}
--- !u!4 &6233184832257569187 stripped
Transform:
  m_CorrespondingSourceObject: {fileID: 4146445422224938, guid: 4be703f0d1af24046be6c443f26fdb76, type: 3}
  m_PrefabInstance: {fileID: 6236926653036517257}
  m_PrefabAsset: {fileID: 0}
--- !u!23 &6258550656203389109 stripped
MeshRenderer:
  m_CorrespondingSourceObject: {fileID: 23878190986571580, guid: 4be703f0d1af24046be6c443f26fdb76, type: 3}
  m_PrefabInstance: {fileID: 6236926653036517257}
  m_PrefabAsset: {fileID: 0}
